<svg xmlns="http://www.w3.org/2000/svg" xmlns:xlink="http://www.w3.org/1999/xlink" preserveAspectRatio="xMidYMid" width="80" height="780" viewBox="0 0 80 780">
  <defs>
    <style>
      .cls-1 {
        fill: #fff;
      }

      .cls-1, .cls-2, .cls-3, .cls-5 {
        fill-rule: evenodd;
      }

      .cls-2, .cls-4, .cls-5 {
        fill: #cfefeb;
      }

      .cls-3 {
        fill: #2cc6c7;
      }

      .cls-5 {
        stroke: #2cc6c7;
        stroke-linejoin: round;
        stroke-width: 2px;
      }
    </style>
  </defs>
  <g>
    <path d="M63.628,13.981 L59.851,13.981 L59.000,13.981 L59.000,11.259 L51.800,11.259 L51.800,13.981 L50.900,13.981 C50.900,8.478 46.458,4.000 41.000,4.000 C35.541,4.000 31.100,8.478 31.100,13.981 L30.200,13.981 L30.200,11.259 L23.000,11.259 L23.000,13.981 L22.149,13.981 L18.372,13.981 C15.962,13.981 14.000,15.959 14.000,18.390 L14.000,22.197 L14.000,44.784 L14.000,48.592 C14.000,51.023 15.962,53.000 18.372,53.000 L22.149,53.000 L23.000,53.000 L30.200,53.000 L51.800,53.000 L59.000,53.000 L59.851,53.000 L63.628,53.000 C66.038,53.000 68.000,51.023 68.000,48.592 L68.000,44.784 L68.000,22.197 L68.000,18.390 C68.000,15.959 66.038,13.981 63.628,13.981 ZM53.600,13.074 L57.200,13.074 L57.200,13.981 L53.600,13.981 L53.600,13.074 ZM45.500,13.981 L36.500,13.981 C36.500,11.480 38.519,9.444 41.000,9.444 C43.481,9.444 45.500,11.480 45.500,13.981 ZM24.800,13.074 L28.400,13.074 L28.400,13.981 L24.800,13.981 L24.800,13.074 Z" class="cls-1"/>
    <path d="M53.000,53.000 L53.000,14.000 L58.000,14.000 L58.000,53.000 L53.000,53.000 ZM44.000,39.000 L36.000,34.555 L36.000,30.000 L49.000,30.000 L49.000,39.000 L44.000,39.000 L44.000,39.000 ZM24.000,14.000 L30.000,14.000 L30.000,53.000 L24.000,53.000 L24.000,14.000 Z" class="cls-2"/>
    <path d="M63.628,53.000 L59.851,53.000 L59.000,53.000 L51.800,53.000 L30.200,53.000 L23.000,53.000 L22.149,53.000 L18.372,53.000 C15.962,53.000 14.000,51.023 14.000,48.592 L14.000,44.784 L14.000,22.197 L14.000,18.390 C14.000,15.959 15.962,13.981 18.372,13.981 L22.149,13.981 L23.000,13.981 L23.000,11.259 L30.200,11.259 L30.200,13.981 L31.100,13.981 C31.100,8.478 35.541,4.000 41.000,4.000 C46.458,4.000 50.900,8.478 50.900,13.981 L51.800,13.981 L51.800,11.259 L59.000,11.259 L59.000,13.981 L59.851,13.981 L63.628,13.981 C66.038,13.981 68.000,15.959 68.000,18.390 L68.000,22.197 L68.000,44.784 L68.000,48.592 C68.000,51.023 66.038,53.000 63.628,53.000 ZM15.800,48.592 C15.800,50.022 16.954,51.185 18.372,51.185 L18.372,51.184 L19.908,51.184 C19.230,49.257 17.712,47.726 15.800,47.043 L15.800,48.592 ZM18.372,15.796 C16.954,15.796 15.800,16.960 15.800,18.390 L15.800,19.938 C17.712,19.254 19.231,17.723 19.908,15.796 L18.372,15.796 ZM23.000,15.796 L21.767,15.796 C20.972,18.717 18.697,21.011 15.800,21.812 L15.800,45.169 C18.697,45.970 20.972,48.264 21.767,51.185 L23.000,51.185 L23.000,15.796 ZM28.400,13.074 L24.800,13.074 L24.800,13.981 L28.400,13.981 L28.400,13.074 ZM28.400,15.796 L24.800,15.796 L24.800,51.185 L28.400,51.185 L28.400,15.796 ZM41.000,5.815 C36.534,5.815 32.900,9.479 32.900,13.981 L34.700,13.981 C34.700,10.479 37.526,7.630 41.000,7.630 C44.474,7.630 47.300,10.479 47.300,13.981 L49.100,13.981 C49.100,9.479 45.466,5.815 41.000,5.815 ZM36.500,13.981 L45.500,13.981 C45.500,11.480 43.481,9.444 41.000,9.444 C38.519,9.444 36.500,11.480 36.500,13.981 ZM51.800,15.796 L50.900,15.796 L47.300,15.796 L34.700,15.796 L31.100,15.796 L30.200,15.796 L30.200,51.185 L51.800,51.185 L51.800,15.796 ZM57.200,13.074 L53.600,13.074 L53.600,13.981 L57.200,13.981 L57.200,13.074 ZM57.200,15.796 L53.600,15.796 L53.600,51.185 L57.200,51.185 L57.200,15.796 ZM66.200,18.390 C66.200,16.960 65.046,15.796 63.628,15.796 L62.092,15.796 C62.769,17.723 64.288,19.254 66.200,19.938 L66.200,18.390 ZM66.200,21.812 C63.302,21.011 61.028,18.717 60.233,15.796 L59.000,15.796 L59.000,51.185 L60.233,51.185 C61.028,48.264 63.303,45.970 66.200,45.169 L66.200,21.812 ZM66.200,47.044 C64.288,47.727 62.770,49.258 62.092,51.185 L63.628,51.185 C65.046,51.185 66.200,50.022 66.200,48.592 L66.200,47.044 ZM34.700,33.235 L34.700,28.500 L35.967,28.500 L34.771,25.917 L46.417,20.434 L50.296,28.810 L50.000,28.950 L50.000,39.389 L41.536,39.389 L39.865,43.380 L30.657,39.463 L33.480,32.716 L34.700,33.235 ZM45.548,22.847 L37.163,26.793 L37.953,28.500 L46.701,28.500 L47.904,27.935 L45.548,22.847 ZM42.296,37.574 L48.200,37.574 L48.200,30.315 L47.101,30.315 L36.808,30.315 L36.500,30.315 L36.500,34.001 L42.689,36.633 L42.296,37.574 ZM38.907,41.002 L39.582,39.389 L40.331,37.599 L34.700,35.204 L34.439,35.093 L33.015,38.496 L38.907,41.002 Z" class="cls-3"/>
  </g>
  <g>
    <path d="M64.047,99.156 C62.192,99.156 60.687,97.421 60.687,95.281 C60.687,93.141 62.192,91.406 64.047,91.406 C65.902,91.406 67.406,93.141 67.406,95.281 C67.406,97.421 65.902,99.156 64.047,99.156 ZM29.899,82.710 L32.785,76.903 C32.785,76.903 42.855,75.421 46.253,76.903 C49.651,78.385 55.873,82.710 55.873,82.710 L54.911,86.581 L29.899,82.710 ZM14.984,99.156 C13.129,99.156 11.625,97.421 11.625,95.281 C11.625,93.141 13.129,91.406 14.984,91.406 C16.840,91.406 18.344,93.141 18.344,95.281 C18.344,97.421 16.840,99.156 14.984,99.156 Z" class="cls-2"/>
    <path d="M76.810,101.600 L69.692,101.600 C68.189,103.083 66.134,104.000 63.871,104.000 C61.607,104.000 59.552,103.083 58.050,101.600 L20.909,101.600 C19.406,103.083 17.352,104.000 15.088,104.000 C12.245,104.000 9.732,102.555 8.229,100.357 C5.168,99.514 3.190,97.176 3.190,94.400 L3.190,84.500 C3.190,82.680 4.658,81.200 6.462,81.200 L7.456,81.200 L6.266,80.000 L5.576,80.000 C3.604,80.000 2.000,78.382 2.000,76.393 L2.000,75.200 C2.000,74.537 2.533,74.000 3.190,74.000 L10.329,74.000 C10.986,74.000 11.519,74.537 11.519,75.200 L11.519,76.393 C11.519,77.880 10.622,79.160 9.345,79.711 L10.501,80.876 C10.597,80.973 10.672,81.083 10.728,81.200 L14.664,81.200 C16.388,81.200 18.097,80.939 19.744,80.425 L30.704,75.974 C30.733,75.962 30.763,75.951 30.793,75.942 C32.355,75.450 33.976,75.200 35.613,75.200 L43.644,75.200 C47.945,75.200 55.453,80.938 57.296,82.400 L63.871,82.400 C71.088,82.400 76.959,88.321 76.959,95.600 L76.959,99.210 C77.546,99.284 78.000,99.788 78.000,100.400 C78.000,101.062 77.467,101.600 76.810,101.600 ZM63.871,101.600 C67.151,101.600 69.820,98.908 69.820,95.600 C69.820,92.291 67.151,89.600 63.871,89.600 C60.590,89.600 57.922,92.291 57.922,95.600 C57.922,98.908 60.590,101.600 63.871,101.600 ZM15.088,101.600 C18.368,101.600 21.037,98.908 21.037,95.600 C21.037,92.291 18.368,89.600 15.088,89.600 C11.808,89.600 9.139,92.291 9.139,95.600 C9.139,98.908 11.808,101.600 15.088,101.600 ZM4.380,76.400 C4.383,77.062 4.919,77.600 5.576,77.600 L7.942,77.600 C8.600,77.600 9.135,77.062 9.139,76.400 L4.380,76.400 ZM43.644,77.600 L37.695,77.600 C34.568,77.600 32.387,80.670 31.336,82.571 L53.791,84.740 C54.064,84.414 54.459,84.015 54.990,83.639 C52.020,81.384 46.453,77.600 43.644,77.600 ZM74.579,95.600 C74.579,89.645 69.775,84.800 63.871,84.800 L59.111,84.800 C56.501,84.800 55.479,86.437 55.395,86.578 C55.192,86.976 54.799,87.201 54.363,87.201 C54.322,87.201 54.280,87.199 54.239,87.194 L29.401,84.794 C29.030,84.759 28.697,84.549 28.501,84.229 C28.306,83.908 28.271,83.514 28.406,83.163 C28.437,83.084 29.182,81.182 30.639,79.269 C30.921,78.899 31.212,78.555 31.509,78.234 L20.588,82.670 C20.558,82.682 20.529,82.693 20.498,82.702 C18.608,83.298 16.645,83.600 14.664,83.600 L6.462,83.600 C5.970,83.600 5.569,84.004 5.569,84.500 L5.569,94.400 C5.569,95.439 6.048,96.366 6.887,97.056 C6.805,96.583 6.759,96.097 6.759,95.600 C6.759,90.968 10.496,87.200 15.088,87.200 C19.680,87.200 23.417,90.968 23.417,95.600 C23.417,96.888 23.127,98.108 22.612,99.200 L56.347,99.200 C55.832,98.108 55.542,96.888 55.542,95.600 C55.542,90.968 59.278,87.200 63.871,87.200 C68.463,87.200 72.200,90.968 72.200,95.600 C72.200,96.888 71.910,98.108 71.394,99.200 L74.579,99.200 L74.579,95.600 ZM50.836,93.843 C49.751,95.667 47.767,96.800 45.657,96.800 L25.796,96.800 C25.139,96.800 24.607,96.262 24.607,95.600 C24.607,94.937 25.139,94.400 25.796,94.400 L45.657,94.400 C46.935,94.400 48.138,93.713 48.795,92.608 L50.952,88.982 C51.290,88.414 52.021,88.230 52.585,88.571 C53.148,88.912 53.331,89.649 52.993,90.217 L50.836,93.843 ZM15.088,90.800 C15.745,90.800 16.278,91.337 16.278,92.000 C16.278,92.662 15.745,93.200 15.088,93.200 C13.776,93.200 12.708,94.276 12.708,95.600 C12.708,96.923 13.776,98.000 15.088,98.000 C16.400,98.000 17.468,96.923 17.468,95.600 C17.468,94.937 18.000,94.400 18.657,94.400 C19.315,94.400 19.847,94.937 19.847,95.600 C19.847,98.246 17.712,100.400 15.088,100.400 C12.464,100.400 10.329,98.246 10.329,95.600 C10.329,92.953 12.464,90.800 15.088,90.800 ZM63.871,90.800 C64.528,90.800 65.061,91.337 65.061,92.000 C65.061,92.662 64.528,93.200 63.871,93.200 C62.559,93.200 61.491,94.276 61.491,95.600 C61.491,96.923 62.559,98.000 63.871,98.000 C65.183,98.000 66.250,96.923 66.250,95.600 C66.250,94.937 66.783,94.400 67.440,94.400 C68.097,94.400 68.630,94.937 68.630,95.600 C68.630,98.246 66.495,100.400 63.871,100.400 C61.247,100.400 59.111,98.246 59.111,95.600 C59.111,92.953 61.247,90.800 63.871,90.800 Z" class="cls-3"/>
  </g>
  <g>
    <path d="M48.344,161.500 L42.094,161.500 L42.094,167.750 L36.875,167.750 L36.875,161.500 L31.656,161.500 L31.656,156.281 L36.875,156.281 L36.875,151.094 L42.094,151.094 L42.094,156.281 L48.344,156.281 L48.344,161.500 Z" class="cls-2"/>
    <path d="M25.833,147.333 C26.293,147.333 26.667,147.707 26.667,148.166 L26.667,149.000 C26.667,149.919 25.919,150.667 25.000,150.667 L23.333,150.667 C22.414,150.667 21.667,149.919 21.667,149.000 L21.667,148.166 C21.667,147.706 22.040,147.333 22.500,147.333 C22.960,147.333 23.333,147.706 23.333,148.166 L23.333,149.000 L25.000,149.000 L25.000,148.166 C25.000,147.707 25.373,147.333 25.833,147.333 ZM37.500,150.667 L42.500,150.667 C42.960,150.667 43.333,151.040 43.333,151.500 L43.333,155.667 L47.500,155.667 C47.960,155.667 48.333,156.040 48.333,156.500 L48.333,161.500 C48.333,161.960 47.960,162.333 47.500,162.333 L43.333,162.333 L43.333,166.500 C43.333,166.960 42.960,167.333 42.500,167.333 L37.500,167.333 C37.040,167.333 36.667,166.960 36.667,166.500 L36.667,162.333 L32.500,162.333 C32.040,162.333 31.667,161.960 31.667,161.500 L31.667,156.500 C31.667,156.040 32.040,155.667 32.500,155.667 L36.667,155.667 L36.667,151.500 C36.667,151.040 37.040,150.667 37.500,150.667 ZM33.333,157.333 L33.333,160.666 L37.500,160.666 C37.960,160.666 38.333,161.040 38.333,161.500 L38.333,165.666 L41.667,165.666 L41.667,161.500 C41.667,161.040 42.040,160.666 42.500,160.666 L46.667,160.666 L46.667,157.333 L42.500,157.333 C42.040,157.333 41.667,156.960 41.667,156.500 L41.667,152.333 L38.333,152.333 L38.333,156.500 C38.333,156.960 37.960,157.333 37.500,157.333 L33.333,157.333 ZM57.500,147.333 C57.960,147.333 58.333,147.707 58.333,148.166 L58.333,149.000 C58.333,149.919 57.586,150.667 56.667,150.667 L55.000,150.667 C54.081,150.667 53.333,149.919 53.333,149.000 L53.333,148.166 C53.333,147.706 53.707,147.333 54.167,147.333 C54.627,147.333 55.000,147.706 55.000,148.166 L55.000,149.000 L56.667,149.000 L56.667,148.166 C56.667,147.707 57.040,147.333 57.500,147.333 ZM62.500,145.666 L57.500,145.666 C57.040,145.666 56.667,145.293 56.667,144.833 L56.667,140.666 L55.000,140.666 L55.000,144.833 C55.000,145.293 54.626,145.666 54.167,145.666 L25.833,145.666 C25.373,145.666 25.000,145.293 25.000,144.833 L25.000,140.666 L23.333,140.666 L23.333,144.833 C23.333,145.293 22.960,145.666 22.500,145.666 L20.868,145.666 C20.407,145.666 20.035,145.293 20.035,144.833 C20.035,144.373 20.407,144.000 20.868,144.000 L21.667,144.000 L21.667,140.667 C21.667,139.747 22.414,139.000 23.333,139.000 L25.000,139.000 C25.919,139.000 26.667,139.747 26.667,140.667 L26.667,144.000 L53.333,144.000 L53.333,140.667 C53.333,139.747 54.081,139.000 55.000,139.000 L56.667,139.000 C57.586,139.000 58.333,139.747 58.333,140.667 L58.333,144.000 L62.500,144.000 C63.006,144.000 63.333,143.673 63.333,143.167 L63.333,138.167 C63.333,136.788 62.212,135.667 60.833,135.667 L19.167,135.667 C17.788,135.667 16.667,136.788 16.667,138.167 L16.667,143.167 C16.667,143.681 16.986,144.000 17.500,144.000 C17.960,144.000 18.333,144.373 18.333,144.833 L18.333,169.833 C18.333,171.211 19.455,172.333 20.833,172.333 L59.167,172.333 C60.545,172.333 61.667,171.211 61.667,169.833 L61.667,148.166 C61.667,147.707 62.040,147.333 62.500,147.333 C62.960,147.333 63.333,147.707 63.333,148.166 L63.333,169.833 C63.333,172.131 61.464,174.000 59.167,174.000 L20.833,174.000 C18.536,174.000 16.667,172.131 16.667,169.833 L16.667,145.535 C15.676,145.207 15.000,144.296 15.000,143.167 L15.000,138.167 C15.000,135.869 16.869,134.000 19.167,134.000 L60.833,134.000 C63.131,134.000 65.000,135.869 65.000,138.167 L65.000,143.166 C65.000,144.591 63.925,145.666 62.500,145.666 ZM37.500,127.333 L42.500,127.333 C44.797,127.333 46.667,129.202 46.667,131.500 C46.667,131.960 46.293,132.333 45.833,132.333 C45.373,132.333 45.000,131.960 45.000,131.500 C45.000,130.122 43.878,129.000 42.500,129.000 L37.500,129.000 C36.122,129.000 35.000,130.122 35.000,131.500 C35.000,131.960 34.626,132.333 34.167,132.333 C33.707,132.333 33.333,131.960 33.333,131.500 C33.333,129.202 35.203,127.333 37.500,127.333 ZM49.166,132.333 C48.706,132.333 48.333,131.960 48.333,131.500 C48.333,128.446 45.553,125.667 42.500,125.667 L37.500,125.667 C34.502,125.667 31.667,128.502 31.667,131.500 C31.667,131.960 31.293,132.333 30.833,132.333 C30.373,132.333 30.000,131.960 30.000,131.500 C30.000,127.575 33.575,124.000 37.500,124.000 L42.500,124.000 C46.495,124.000 50.000,127.505 50.000,131.500 C50.000,131.960 49.626,132.333 49.166,132.333 Z" class="cls-3"/>
  </g>
  <g>
    <path d="M30.771,202.422 L44.886,210.044 L44.886,219.844 L49.229,215.489 L49.229,207.867 L35.114,199.155 L30.771,202.422 Z" class="cls-2"/>
    <path d="M57.111,196.280 L57.043,196.280 L51.445,196.280 L51.445,193.380 L54.107,193.380 C45.818,185.800 33.027,186.070 25.061,194.210 L24.053,195.240 L22.047,193.190 L23.045,192.170 C27.723,187.390 33.859,185.000 40.005,185.000 C45.798,185.000 51.592,187.130 56.152,191.380 L56.152,188.570 L59.000,188.570 L59.000,194.280 L59.000,194.320 L59.000,196.280 L57.111,196.280 ZM30.340,201.669 L34.807,199.059 C34.809,199.058 34.811,199.057 34.813,199.056 L43.754,193.833 C44.022,193.677 44.361,193.670 44.637,193.815 L58.564,201.158 C58.827,201.297 58.992,201.554 58.999,201.834 C59.006,202.115 58.854,202.378 58.598,202.527 L52.231,206.246 C51.829,206.481 51.298,206.369 51.045,205.996 C50.792,205.623 50.912,205.130 51.314,204.896 L56.465,201.887 L44.235,195.438 L36.939,199.700 L49.610,206.381 C49.643,206.398 49.675,206.417 49.705,206.438 C49.711,206.442 49.717,206.447 49.723,206.451 C49.746,206.468 49.768,206.485 49.789,206.504 C49.793,206.508 49.798,206.512 49.803,206.517 C49.827,206.539 49.850,206.563 49.872,206.589 C49.875,206.592 49.877,206.596 49.879,206.599 C49.894,206.617 49.908,206.634 49.920,206.653 C49.923,206.658 49.926,206.663 49.929,206.667 C49.935,206.676 49.940,206.685 49.945,206.694 C49.957,206.714 49.968,206.735 49.978,206.755 C49.982,206.764 49.986,206.772 49.989,206.780 C50.002,206.809 50.013,206.838 50.022,206.868 C50.022,206.868 50.022,206.868 50.022,206.869 C50.032,206.901 50.038,206.933 50.043,206.965 C50.044,206.971 50.045,206.978 50.046,206.985 C50.049,207.011 50.051,207.038 50.051,207.064 C50.052,207.069 50.052,207.073 50.052,207.078 L50.052,216.652 C50.052,216.926 49.901,217.181 49.651,217.327 L45.177,219.940 C45.037,220.021 44.878,220.063 44.719,220.063 C44.576,220.063 44.433,220.030 44.303,219.963 C44.029,219.823 43.859,219.555 43.859,219.265 L43.859,210.155 L30.814,203.277 L23.519,207.539 L35.749,213.988 L41.680,210.523 C42.082,210.288 42.614,210.400 42.867,210.773 C43.120,211.146 42.999,211.639 42.597,211.873 L36.230,215.592 C36.090,215.674 35.931,215.715 35.772,215.715 C35.626,215.715 35.479,215.680 35.347,215.611 L21.420,208.267 C21.157,208.129 20.992,207.872 20.985,207.592 C20.978,207.311 21.130,207.048 21.386,206.899 L30.333,201.672 C30.335,201.671 30.337,201.670 30.340,201.669 ZM45.144,208.998 C45.413,209.139 45.579,209.404 45.579,209.691 L45.579,217.820 L48.332,216.211 L48.332,208.523 L47.364,209.089 C47.222,209.172 47.063,209.212 46.907,209.212 C46.621,209.212 46.341,209.080 46.178,208.839 C45.925,208.466 46.045,207.973 46.447,207.739 L47.518,207.113 L35.288,200.664 L32.466,202.313 L45.144,208.998 ZM22.270,210.071 L35.749,217.179 L41.680,213.714 C42.082,213.480 42.613,213.591 42.866,213.964 C43.120,214.337 42.999,214.830 42.597,215.065 L36.230,218.784 C36.090,218.865 35.931,218.906 35.772,218.906 C35.625,218.906 35.479,218.872 35.347,218.802 L21.420,211.458 C21.007,211.241 20.862,210.754 21.097,210.371 C21.332,209.987 21.857,209.854 22.270,210.071 ZM22.270,213.263 L35.749,220.370 L41.680,216.906 C42.082,216.671 42.613,216.783 42.866,217.156 C43.120,217.528 42.999,218.021 42.597,218.256 L36.230,221.975 C36.090,222.056 35.931,222.098 35.772,222.098 C35.625,222.098 35.479,222.063 35.347,221.993 L21.420,214.650 C21.007,214.432 20.862,213.945 21.097,213.562 C21.332,213.179 21.857,213.045 22.270,213.263 ZM22.270,216.454 L35.749,223.561 L41.680,220.097 C42.082,219.862 42.613,219.974 42.866,220.347 C43.120,220.720 42.999,221.212 42.597,221.447 L36.230,225.166 C36.090,225.248 35.931,225.289 35.772,225.289 C35.625,225.289 35.479,225.254 35.347,225.184 L21.420,217.841 C21.007,217.623 20.862,217.136 21.097,216.753 C21.332,216.370 21.857,216.236 22.270,216.454 ZM22.957,222.710 L28.555,222.710 L28.555,225.610 L25.893,225.610 C34.182,233.190 46.973,232.920 54.939,224.780 L55.947,223.750 L57.953,225.800 L56.945,226.830 C52.267,231.610 46.131,234.000 39.985,234.000 C34.192,234.000 28.398,231.870 23.838,227.620 L23.838,230.430 L21.000,230.430 L21.000,224.710 L21.000,224.670 L21.000,222.710 L22.889,222.710 L22.957,222.710 ZM58.598,205.718 L52.231,209.437 C52.089,209.520 51.930,209.560 51.774,209.560 C51.488,209.560 51.208,209.428 51.045,209.187 C50.792,208.814 50.912,208.322 51.314,208.087 L57.681,204.368 C58.083,204.133 58.614,204.245 58.867,204.618 C59.120,204.991 59.000,205.484 58.598,205.718 ZM58.598,208.910 L52.231,212.628 C52.089,212.711 51.930,212.751 51.774,212.751 C51.488,212.751 51.208,212.619 51.045,212.378 C50.792,212.006 50.912,211.513 51.314,211.278 L57.681,207.559 C58.083,207.324 58.614,207.437 58.867,207.809 C59.120,208.182 59.000,208.675 58.598,208.910 ZM51.774,215.942 C51.488,215.942 51.208,215.811 51.045,215.570 C50.792,215.197 50.912,214.704 51.314,214.469 L57.681,210.751 C58.083,210.516 58.614,210.628 58.867,211.001 C59.120,211.373 59.000,211.866 58.598,212.101 L52.231,215.820 C52.089,215.903 51.930,215.942 51.774,215.942 Z" class="cls-3"/>
  </g>
  <g>
    <path d="M27.000,247.000 L23.000,250.000 L27.000,256.000 L31.000,257.000 L36.000,251.000 L32.000,246.000 L27.000,247.000 Z" class="cls-2"/>
    <path d="M47.000,276.694 C47.000,286.237 39.149,294.000 29.500,294.000 C19.850,294.000 12.000,286.237 12.000,276.694 C12.000,272.772 13.364,268.929 15.841,265.875 C18.032,263.174 21.016,261.172 24.335,260.156 L23.523,257.276 C23.427,256.939 23.497,256.577 23.711,256.298 C23.925,256.020 24.259,255.856 24.613,255.856 L25.889,255.856 L22.322,250.964 C21.981,250.496 22.055,249.850 22.492,249.469 L26.158,246.279 C26.365,246.099 26.631,246.000 26.906,246.000 L32.092,246.000 C32.367,246.000 32.633,246.099 32.840,246.279 L36.507,249.469 C36.945,249.849 37.018,250.496 36.678,250.964 L33.111,255.856 L34.386,255.856 C34.740,255.856 35.073,256.019 35.287,256.298 C35.501,256.577 35.571,256.938 35.476,257.275 L34.665,260.156 C37.984,261.172 40.968,262.174 43.159,264.875 C45.636,267.929 47.000,272.772 47.000,276.694 ZM24.451,250.429 L28.368,255.428 L28.368,250.429 L24.451,250.429 ZM31.665,247.239 L27.333,247.239 L26.239,249.190 L32.759,249.190 L31.665,247.239 ZM34.548,250.429 L30.632,250.429 L30.632,255.428 L34.548,250.429 ZM41.393,267.276 C39.269,264.657 36.290,262.793 33.006,262.029 C32.446,261.898 32.074,261.374 32.141,260.810 C32.152,260.718 32.174,260.630 32.205,260.546 L32.896,258.095 L26.104,258.095 L26.804,260.576 C26.830,260.651 26.848,260.729 26.858,260.810 C26.924,261.374 26.554,261.898 25.995,262.029 C22.710,262.793 19.732,264.657 17.607,267.276 C15.420,269.973 14.264,273.230 14.264,276.694 C14.264,285.002 21.099,291.761 29.500,291.761 C37.901,291.761 44.736,285.002 44.737,276.694 C44.737,273.230 43.580,269.973 41.393,267.276 ZM29.500,290.569 C21.764,290.569 15.470,284.345 15.470,276.694 C15.470,269.044 21.764,262.820 29.500,262.820 C37.237,262.820 43.531,269.044 43.531,276.694 C43.531,284.345 37.237,290.569 29.500,290.569 ZM29.500,265.058 C23.012,265.058 17.733,270.278 17.733,276.694 C17.733,283.110 23.012,288.330 29.500,288.330 C35.988,288.330 41.267,283.110 41.267,276.694 C41.267,270.278 35.988,265.058 29.500,265.058 Z" class="cls-3"/>
    <path d="M47.500,294.000 C37.955,294.000 30.183,286.400 30.016,277.000 C30.074,273.734 31.066,270.696 32.716,268.108 C33.322,268.343 34.002,268.715 34.706,269.177 C33.230,271.445 32.338,274.120 32.279,277.000 C32.446,285.166 39.203,291.761 47.500,291.761 C55.797,291.761 62.554,285.166 62.721,277.000 C62.554,268.834 55.797,262.238 47.500,262.238 C45.891,262.238 44.344,262.492 42.888,262.952 C42.159,262.364 41.494,261.792 40.964,261.263 C42.985,260.454 45.189,260.000 47.500,260.000 C57.045,260.000 64.817,267.599 64.984,277.000 C64.817,286.400 57.045,294.000 47.500,294.000 ZM47.500,288.330 C53.884,288.330 59.085,283.274 59.251,277.000 C59.085,270.726 53.884,265.669 47.500,265.669 C47.154,265.669 46.813,265.691 46.475,265.720 C45.720,265.138 44.885,264.510 44.056,263.871 C45.160,263.594 46.310,263.431 47.500,263.431 C55.132,263.431 61.348,269.491 61.515,277.000 C61.348,284.509 55.132,290.569 47.500,290.569 C39.868,290.569 33.652,284.509 33.485,277.000 C33.543,274.377 34.352,271.940 35.689,269.867 C36.304,270.320 36.905,270.804 37.459,271.282 C36.428,272.960 35.804,274.909 35.749,277.000 C35.915,283.274 41.116,288.330 47.500,288.330 Z" class="cls-3"/>
  </g>
  <g>
    <path d="M36.492,442.650 L47.496,449.255 L48.496,459.417 L52.497,456.877 L52.497,447.223 L39.993,439.602 L36.492,442.650 Z" class="cls-2"/>
    <path d="M60.637,442.655 L54.942,446.306 C54.583,446.537 54.108,446.427 53.881,446.061 C53.655,445.695 53.763,445.211 54.122,444.980 L58.730,442.026 L47.789,435.695 L41.263,439.879 L52.598,446.438 C52.627,446.455 52.656,446.474 52.683,446.495 C52.688,446.499 52.693,446.503 52.699,446.507 C52.719,446.523 52.739,446.541 52.758,446.559 C52.762,446.564 52.766,446.567 52.770,446.572 C52.792,446.594 52.813,446.618 52.832,446.643 C52.835,446.646 52.836,446.649 52.839,446.653 C52.851,446.670 52.864,446.687 52.875,446.706 C52.878,446.710 52.880,446.715 52.883,446.720 C52.888,446.728 52.893,446.737 52.897,446.745 C52.908,446.765 52.918,446.786 52.927,446.806 C52.930,446.814 52.934,446.822 52.937,446.830 C52.948,446.859 52.958,446.887 52.966,446.916 C52.966,446.917 52.967,446.917 52.967,446.917 C52.975,446.949 52.981,446.980 52.985,447.012 C52.986,447.018 52.987,447.025 52.988,447.031 C52.991,447.057 52.992,447.083 52.993,447.109 C52.993,447.114 52.994,447.118 52.994,447.123 L52.994,456.522 C52.994,456.791 52.858,457.041 52.634,457.185 L48.633,459.750 C48.508,459.830 48.365,459.871 48.223,459.871 C48.095,459.871 47.967,459.838 47.851,459.773 C47.605,459.635 47.453,459.373 47.453,459.088 L47.453,450.144 L35.784,443.391 L29.258,447.575 L40.199,453.907 L45.505,450.505 C45.864,450.275 46.339,450.385 46.566,450.751 C46.792,451.117 46.684,451.601 46.324,451.831 L40.629,455.482 C40.504,455.562 40.362,455.602 40.219,455.602 C40.088,455.602 39.957,455.568 39.839,455.500 L27.381,448.290 C27.145,448.154 26.998,447.903 26.992,447.627 C26.986,447.352 27.122,447.093 27.351,446.947 L35.354,441.816 C35.356,441.815 35.358,441.813 35.360,441.812 L39.356,439.250 C39.358,439.249 39.360,439.248 39.361,439.247 L47.359,434.119 C47.599,433.966 47.903,433.959 48.149,434.101 L60.608,441.311 C60.843,441.447 60.991,441.699 60.997,441.974 C61.003,442.250 60.866,442.508 60.637,442.655 ZM37.262,442.444 L48.603,449.007 C48.843,449.147 48.992,449.407 48.992,449.688 L48.992,457.669 L51.455,456.090 L51.455,448.542 L50.589,449.097 C50.461,449.179 50.320,449.217 50.180,449.217 C49.924,449.217 49.674,449.088 49.528,448.851 C49.301,448.485 49.409,448.002 49.769,447.771 L50.727,447.157 L39.786,440.826 L37.262,442.444 ZM28.141,450.062 L40.199,457.040 L45.505,453.638 C45.864,453.408 46.339,453.518 46.565,453.884 C46.792,454.250 46.684,454.734 46.324,454.964 L40.629,458.615 C40.504,458.695 40.362,458.736 40.219,458.736 C40.088,458.736 39.957,458.702 39.839,458.633 L27.381,451.424 C27.011,451.210 26.882,450.732 27.092,450.356 C27.302,449.979 27.772,449.848 28.141,450.062 ZM28.141,453.195 L40.199,460.173 L45.505,456.771 C45.864,456.541 46.339,456.651 46.565,457.017 C46.792,457.383 46.684,457.867 46.324,458.097 L40.629,461.748 C40.504,461.828 40.362,461.869 40.219,461.869 C40.088,461.869 39.957,461.835 39.839,461.766 L27.381,454.557 C27.011,454.343 26.882,453.865 27.092,453.489 C27.302,453.112 27.772,452.981 28.141,453.195 ZM28.141,456.328 L40.199,463.306 L45.505,459.904 C45.864,459.674 46.339,459.784 46.565,460.150 C46.792,460.516 46.684,461.000 46.324,461.230 L40.629,464.881 C40.504,464.961 40.362,465.002 40.219,465.002 C40.088,465.002 39.957,464.968 39.839,464.899 L27.381,457.690 C27.011,457.476 26.882,456.998 27.092,456.622 C27.302,456.245 27.772,456.114 28.141,456.328 ZM59.818,444.462 C60.177,444.232 60.652,444.342 60.879,444.708 C61.105,445.074 60.997,445.557 60.637,445.788 L54.942,449.439 C54.815,449.521 54.673,449.560 54.533,449.560 C54.277,449.560 54.027,449.430 53.881,449.194 C53.655,448.828 53.763,448.344 54.122,448.113 L59.818,444.462 ZM59.818,447.595 C60.177,447.365 60.652,447.475 60.879,447.841 C61.105,448.207 60.997,448.691 60.637,448.921 L54.942,452.572 C54.815,452.654 54.673,452.693 54.533,452.693 C54.277,452.693 54.027,452.563 53.881,452.327 C53.655,451.961 53.763,451.477 54.122,451.246 L59.818,447.595 ZM59.818,450.729 C60.177,450.498 60.652,450.608 60.879,450.974 C61.105,451.340 60.997,451.824 60.637,452.054 L54.942,455.705 C54.815,455.787 54.673,455.826 54.533,455.826 C54.277,455.826 54.027,455.696 53.881,455.460 C53.655,455.094 53.763,454.610 54.122,454.380 L59.818,450.729 Z" class="cls-3"/>
    <g>
      <path d="M25.137,496.969 L46.059,509.292 L47.961,528.250 L55.569,523.510 L55.569,505.500 L31.794,491.281 L25.137,496.969 Z" class="cls-2"/>
      <path d="M71.046,496.977 L60.217,503.789 C59.534,504.219 58.630,504.014 58.200,503.331 C57.770,502.648 57.975,501.746 58.659,501.316 L67.419,495.805 L46.617,483.993 L34.209,491.798 L55.760,504.036 C55.816,504.067 55.870,504.103 55.922,504.141 C55.932,504.149 55.942,504.157 55.952,504.164 C55.990,504.195 56.028,504.227 56.064,504.262 C56.072,504.269 56.080,504.277 56.088,504.285 C56.129,504.326 56.169,504.370 56.205,504.418 C56.210,504.424 56.214,504.430 56.218,504.436 C56.242,504.468 56.266,504.500 56.288,504.534 C56.293,504.543 56.297,504.552 56.302,504.561 C56.312,504.577 56.320,504.593 56.329,504.609 C56.350,504.646 56.369,504.684 56.386,504.722 C56.392,504.737 56.399,504.752 56.405,504.767 C56.427,504.820 56.446,504.873 56.461,504.928 C56.461,504.929 56.461,504.929 56.461,504.930 C56.477,504.988 56.488,505.047 56.497,505.106 C56.499,505.118 56.500,505.130 56.501,505.142 C56.507,505.190 56.510,505.239 56.511,505.287 C56.511,505.296 56.512,505.304 56.512,505.313 L56.512,522.849 C56.512,523.351 56.254,523.817 55.829,524.085 L48.221,528.871 C47.983,529.021 47.712,529.096 47.441,529.096 C47.198,529.096 46.955,529.036 46.734,528.914 C46.268,528.657 45.978,528.167 45.978,527.635 L45.978,510.949 L23.792,498.351 L11.384,506.157 L32.186,517.969 L42.273,511.623 C42.957,511.193 43.860,511.398 44.291,512.081 C44.721,512.764 44.516,513.667 43.832,514.097 L33.004,520.908 C32.766,521.058 32.495,521.133 32.224,521.133 C31.975,521.133 31.726,521.070 31.501,520.942 L7.814,507.491 C7.366,507.237 7.086,506.768 7.074,506.254 C7.062,505.740 7.322,505.258 7.757,504.984 L22.974,495.412 C22.978,495.410 22.981,495.407 22.985,495.405 L30.583,490.625 C30.586,490.623 30.590,490.621 30.593,490.619 L45.799,481.054 C46.256,480.767 46.833,480.754 47.302,481.020 L70.989,494.470 C71.437,494.724 71.717,495.194 71.729,495.708 C71.741,496.222 71.481,496.704 71.046,496.977 ZM26.601,496.585 L48.164,508.829 C48.621,509.089 48.904,509.574 48.904,510.099 L48.904,524.988 L53.587,522.042 L53.587,507.960 L51.940,508.996 C51.698,509.148 51.428,509.221 51.162,509.221 C50.676,509.221 50.201,508.979 49.923,508.538 C49.492,507.855 49.697,506.953 50.381,506.523 L52.202,505.377 L31.401,493.565 L26.601,496.585 ZM9.259,510.796 L32.186,523.814 L42.273,517.468 C42.957,517.038 43.860,517.243 44.290,517.927 C44.721,518.609 44.516,519.512 43.832,519.942 L33.003,526.753 C32.766,526.903 32.495,526.978 32.224,526.978 C31.975,526.978 31.726,526.915 31.501,526.787 L7.814,513.336 C7.111,512.938 6.866,512.046 7.265,511.344 C7.664,510.642 8.557,510.397 9.259,510.796 ZM9.259,516.641 L32.186,529.659 L42.273,523.314 C42.957,522.883 43.860,523.089 44.290,523.772 C44.721,524.455 44.516,525.357 43.832,525.787 L33.003,532.599 C32.766,532.748 32.495,532.823 32.224,532.823 C31.975,532.823 31.726,532.760 31.501,532.632 L7.814,519.182 C7.111,518.783 6.866,517.891 7.265,517.189 C7.664,516.487 8.557,516.242 9.259,516.641 ZM9.259,522.486 L32.186,535.504 L42.273,529.159 C42.957,528.729 43.860,528.934 44.290,529.617 C44.721,530.300 44.516,531.202 43.832,531.632 L33.003,538.444 C32.766,538.593 32.495,538.669 32.224,538.669 C31.975,538.669 31.726,538.605 31.501,538.478 L7.814,525.027 C7.111,524.628 6.866,523.736 7.265,523.034 C7.664,522.332 8.557,522.087 9.259,522.486 ZM69.487,500.349 C70.171,499.919 71.074,500.124 71.504,500.807 C71.935,501.490 71.730,502.393 71.046,502.823 L60.217,509.634 C59.976,509.786 59.706,509.859 59.440,509.859 C58.954,509.859 58.478,509.617 58.200,509.176 C57.770,508.493 57.975,507.591 58.659,507.161 L69.487,500.349 ZM69.487,506.195 C70.171,505.764 71.074,505.969 71.504,506.653 C71.935,507.335 71.730,508.238 71.046,508.668 L60.217,515.479 C59.976,515.632 59.706,515.704 59.440,515.704 C58.954,515.704 58.478,515.463 58.200,515.021 C57.770,514.338 57.975,513.436 58.659,513.006 L69.487,506.195 ZM69.487,512.040 C70.171,511.610 71.074,511.815 71.504,512.498 C71.935,513.181 71.730,514.083 71.046,514.513 L60.217,521.325 C59.976,521.477 59.706,521.549 59.440,521.549 C58.954,521.549 58.478,521.308 58.200,520.867 C57.770,520.184 57.975,519.281 58.659,518.851 L69.487,512.040 Z" class="cls-3"/>
    </g>
    <path d="M82.073,434.440 L71.808,439.183 C71.783,439.203 71.749,439.210 71.726,439.218 C71.494,439.303 65.970,441.375 61.395,439.360 L52.128,435.272 C51.633,435.056 51.325,434.558 51.335,434.007 C51.377,432.245 52.589,429.585 55.744,429.451 C58.922,429.309 63.688,430.175 63.895,430.211 C64.611,430.341 65.084,431.038 64.953,431.766 C64.823,432.493 64.134,432.975 63.417,432.845 C63.374,432.840 58.726,431.998 55.850,432.120 C55.070,432.152 54.558,432.452 54.253,433.057 C54.225,433.110 54.195,433.174 54.177,433.229 L62.452,436.885 C65.899,438.406 70.329,436.869 70.771,436.696 L80.986,431.993 C81.220,431.897 81.457,431.857 81.687,431.884 C82.135,431.937 82.535,432.221 82.738,432.661 C83.035,433.338 82.741,434.136 82.073,434.440 ZM73.236,427.746 C72.912,427.955 72.517,428.010 72.152,427.910 L56.541,423.455 C55.027,423.029 53.373,423.228 51.993,424.021 L32.585,435.181 C32.606,435.195 32.615,435.208 32.636,435.221 C33.274,435.736 34.073,435.830 35.075,435.509 C38.589,434.405 46.075,431.776 46.155,431.752 C46.839,431.506 47.594,431.877 47.832,432.581 C48.071,433.284 47.704,434.040 47.010,434.285 C46.929,434.309 39.398,436.943 35.849,438.066 C32.095,439.244 30.006,436.734 29.417,435.246 C29.169,434.620 29.418,433.918 29.980,433.579 L50.683,421.683 C52.670,420.544 55.068,420.242 57.256,420.872 L72.298,425.170 L76.221,422.571 C76.497,422.390 76.804,422.325 77.100,422.360 C77.472,422.404 77.824,422.614 78.050,422.956 C78.453,423.578 78.277,424.412 77.664,424.813 L73.236,427.746 Z" class="cls-3"/>
    <path d="M58.474,463.332 L39.309,477.574 C37.470,478.938 35.123,479.519 32.877,479.150 L17.434,476.646 L13.843,479.687 C13.590,479.899 13.293,480.000 12.995,480.000 C12.621,480.000 12.246,479.832 11.982,479.519 C11.508,478.949 11.585,478.100 12.147,477.630 L16.200,474.198 C16.498,473.952 16.883,473.851 17.258,473.907 L33.284,476.501 C34.837,476.747 36.456,476.356 37.734,475.405 L55.699,462.046 C55.677,462.035 55.666,462.024 55.644,462.013 C54.950,461.577 54.146,461.577 53.188,462.013 C49.828,463.522 42.702,467.010 42.624,467.043 C41.975,467.367 41.182,467.088 40.862,466.417 C40.543,465.746 40.818,464.953 41.479,464.629 C41.556,464.595 48.727,461.096 52.119,459.564 C55.710,457.955 58.078,460.202 58.838,461.610 C59.157,462.203 58.992,462.929 58.474,463.332 ZM33.372,470.453 C30.233,470.967 25.398,470.665 25.188,470.654 C24.461,470.609 23.911,469.972 23.955,469.234 C23.999,468.497 24.627,467.938 25.354,467.982 C25.398,467.982 30.112,468.273 32.954,467.815 C33.725,467.692 34.198,467.334 34.430,466.697 C34.452,466.641 34.474,466.574 34.485,466.518 L25.838,463.857 C22.236,462.750 18.018,464.796 17.599,465.020 L8.006,470.889 C7.785,471.012 7.554,471.079 7.323,471.079 C6.871,471.079 6.441,470.844 6.188,470.431 C5.814,469.793 6.012,468.966 6.640,468.586 L16.278,462.672 C16.300,462.650 16.333,462.639 16.355,462.627 C16.575,462.516 21.818,459.810 26.598,461.275 L36.280,464.248 C36.798,464.405 37.161,464.863 37.216,465.411 C37.382,467.166 36.489,469.950 33.372,470.453 Z" class="cls-3"/>
  </g>
  <g>
    <path d="M42.000,333.000 C40.750,333.750 36.000,338.000 36.000,338.000 L35.000,333.000 C35.000,333.000 31.250,328.500 31.000,326.000 C30.750,323.500 35.000,320.000 35.000,320.000 L35.000,327.000 L42.000,326.000 L42.000,320.000 L44.000,321.000 C44.000,321.000 44.750,326.000 45.000,328.000 C45.250,330.000 43.250,332.250 42.000,333.000 ZM38.000,339.000 L41.000,338.000 L41.000,353.000 C41.000,353.000 41.500,355.000 39.000,355.000 C36.500,355.000 36.000,355.000 36.000,355.000 L36.000,352.000 L39.000,351.000 L38.000,339.000 Z" class="cls-2"/>
    <path d="M65.787,328.323 C65.588,328.593 65.284,328.734 64.975,328.734 C64.765,328.734 64.553,328.669 64.372,328.532 L59.338,324.737 L59.338,350.036 L57.318,350.036 L57.318,350.000 L52.000,350.000 L52.000,348.000 L57.318,348.000 L57.318,323.214 L38.871,309.309 L22.203,323.083 L22.203,348.000 L30.000,348.000 L30.000,350.000 L22.203,350.000 L22.203,350.073 L20.182,350.073 L20.182,324.753 L15.643,328.504 C15.455,328.659 15.229,328.734 15.004,328.734 C14.711,328.734 14.421,328.606 14.222,328.359 C13.868,327.922 13.932,327.279 14.364,326.922 L23.341,319.504 L23.341,311.164 C23.341,310.600 23.793,310.143 24.351,310.143 L29.732,310.143 C30.290,310.143 30.742,310.600 30.742,311.164 L30.742,313.387 L38.204,307.221 C38.221,307.206 38.242,307.196 38.261,307.183 C38.292,307.161 38.322,307.138 38.355,307.120 C38.383,307.105 38.411,307.093 38.439,307.080 C38.471,307.067 38.502,307.053 38.534,307.042 C38.565,307.032 38.597,307.025 38.628,307.019 C38.660,307.012 38.692,307.004 38.724,307.000 C38.755,306.997 38.786,306.997 38.818,306.996 C38.850,306.995 38.885,306.993 38.919,306.996 C38.948,306.999 38.977,307.004 39.006,307.009 C39.041,307.015 39.077,307.021 39.111,307.030 C39.140,307.038 39.169,307.051 39.198,307.062 C39.229,307.073 39.261,307.085 39.292,307.100 C39.324,307.116 39.354,307.136 39.383,307.156 C39.403,307.170 39.426,307.179 39.446,307.194 L58.606,321.637 C58.846,321.707 59.049,321.861 59.179,322.070 L65.579,326.894 C66.026,327.232 66.118,327.872 65.787,328.323 ZM28.722,312.186 L25.361,312.186 L25.361,317.835 L28.722,315.058 L28.722,312.186 ZM30.564,326.516 C30.564,323.563 32.187,320.903 34.799,319.574 C35.008,319.468 35.256,319.479 35.455,319.603 C35.654,319.727 35.775,319.947 35.775,320.183 L35.776,325.837 L40.719,325.837 L40.719,320.183 C40.719,319.947 40.840,319.727 41.039,319.604 C41.238,319.479 41.486,319.469 41.695,319.575 C44.308,320.904 45.931,323.564 45.931,326.518 C45.931,329.159 44.573,331.603 42.415,333.023 L45.996,336.080 C46.293,336.334 46.449,336.718 46.418,337.107 C46.422,337.147 46.424,337.188 46.424,337.228 L46.424,339.246 C46.641,339.030 46.939,338.897 47.265,338.897 L49.226,338.897 C49.549,338.897 49.853,339.024 50.080,339.254 C50.308,339.485 50.434,339.791 50.434,340.117 L50.434,350.556 C50.434,351.230 49.892,351.777 49.228,351.777 L47.268,351.777 C46.833,351.777 46.455,351.542 46.243,351.193 C46.030,351.542 45.652,351.777 45.218,351.777 L42.544,351.777 C42.310,351.777 42.089,351.709 41.897,351.585 L41.897,353.316 C41.897,355.350 40.260,357.005 38.249,357.005 L38.249,356.324 L38.247,357.005 C36.235,357.005 34.599,355.351 34.599,353.316 L34.599,351.778 L32.702,351.778 C32.701,351.778 32.701,351.778 32.700,351.778 C32.378,351.777 32.076,351.650 31.848,351.420 C31.620,351.190 31.494,350.883 31.494,350.556 L31.494,348.756 C31.494,348.562 31.544,348.380 31.624,348.216 C31.544,348.054 31.494,347.872 31.494,347.677 L31.495,345.877 C31.495,345.686 31.542,345.504 31.624,345.337 C31.542,345.170 31.494,344.987 31.495,344.795 L31.494,342.997 C31.494,342.803 31.544,342.621 31.624,342.457 C31.544,342.294 31.494,342.111 31.494,341.917 L31.494,340.117 C31.494,339.445 32.036,338.897 32.701,338.896 L34.599,338.896 L34.599,333.353 C32.134,332.005 30.564,329.367 30.564,326.516 ZM47.406,350.417 L49.086,350.417 L49.087,340.260 L47.406,340.260 L47.406,350.417 ZM41.616,336.111 L42.444,336.817 C42.595,336.947 42.682,337.137 42.682,337.337 L42.682,350.417 L45.077,350.417 L45.077,337.228 C45.062,337.165 45.059,337.119 45.064,337.068 L41.312,333.863 C41.311,333.863 41.309,333.864 41.308,333.864 C41.207,333.892 41.140,333.888 41.056,333.866 L37.350,337.029 L38.319,338.190 L40.750,336.113 C41.000,335.900 41.365,335.900 41.616,336.111 ZM37.629,343.139 L32.841,343.139 L32.841,344.657 L35.272,344.657 L37.629,344.657 L37.629,343.899 L37.629,343.139 ZM35.944,353.319 C35.944,354.601 36.976,355.646 38.245,355.646 L38.248,355.646 C39.517,355.646 40.548,354.602 40.548,353.319 L40.550,353.319 L40.550,338.068 L39.081,339.322 C39.011,339.382 38.935,339.429 38.853,339.469 C38.838,339.477 38.824,339.490 38.808,339.498 C38.818,339.512 38.820,339.529 38.828,339.544 C38.862,339.607 38.890,339.673 38.912,339.743 C38.921,339.770 38.931,339.796 38.937,339.824 C38.961,339.919 38.977,340.017 38.977,340.119 L38.976,341.920 C38.976,342.011 38.965,342.099 38.946,342.185 C38.938,342.212 38.929,342.237 38.921,342.264 C38.904,342.321 38.887,342.376 38.862,342.429 C38.858,342.439 38.856,342.449 38.852,342.459 C38.856,342.468 38.858,342.478 38.862,342.488 C38.887,342.541 38.904,342.597 38.921,342.654 C38.929,342.681 38.940,342.706 38.946,342.734 C38.965,342.820 38.977,342.908 38.977,343.000 L38.976,344.800 C38.977,344.889 38.965,344.976 38.947,345.061 C38.942,345.088 38.932,345.113 38.924,345.139 C38.907,345.196 38.889,345.253 38.864,345.308 C38.860,345.318 38.858,345.330 38.853,345.340 C38.858,345.351 38.860,345.363 38.865,345.375 C38.889,345.427 38.906,345.482 38.922,345.538 C38.931,345.565 38.940,345.591 38.946,345.619 C38.964,345.705 38.975,345.792 38.975,345.880 L38.976,347.679 C38.976,347.772 38.965,347.860 38.946,347.945 C38.938,347.973 38.929,347.998 38.921,348.026 C38.904,348.081 38.887,348.137 38.863,348.189 C38.858,348.199 38.856,348.210 38.852,348.220 C38.856,348.229 38.858,348.240 38.862,348.250 C38.886,348.302 38.904,348.357 38.920,348.413 C38.928,348.440 38.938,348.465 38.945,348.494 C38.964,348.579 38.975,348.667 38.975,348.759 L38.975,350.559 C38.975,350.641 38.966,350.723 38.951,350.803 C38.948,350.819 38.941,350.832 38.937,350.847 C38.923,350.911 38.906,350.973 38.881,351.033 C38.877,351.040 38.873,351.046 38.869,351.054 C38.810,351.189 38.728,351.314 38.622,351.421 C38.512,351.533 38.384,351.618 38.245,351.679 C38.243,351.681 38.240,351.683 38.237,351.683 C38.175,351.710 38.110,351.728 38.044,351.744 C38.033,351.746 38.022,351.752 38.010,351.755 C37.931,351.770 37.850,351.779 37.768,351.779 L35.944,351.779 L35.944,353.319 ZM32.841,350.417 L35.271,350.417 C35.272,350.417 35.272,350.417 35.272,350.417 L35.272,350.417 L37.629,350.417 L37.629,348.899 L32.841,348.899 L32.841,350.417 ZM37.628,347.537 L37.628,346.787 L37.627,346.020 L35.272,346.019 L32.841,346.020 L32.840,347.537 L37.628,347.537 ZM32.840,340.259 L32.840,341.778 L37.627,341.778 L37.628,340.259 L35.271,340.259 L32.840,340.259 ZM35.558,332.319 C35.794,332.431 35.945,332.671 35.945,332.935 L35.944,338.897 L37.146,338.897 L36.230,337.800 C36.023,337.552 35.923,337.236 35.950,336.911 C35.976,336.585 36.127,336.290 36.373,336.080 L40.245,332.775 C40.309,332.719 40.379,332.673 40.452,332.633 C40.477,332.620 40.504,332.613 40.530,332.601 C40.577,332.580 40.623,332.556 40.675,332.540 C40.740,332.448 40.829,332.371 40.936,332.321 C43.152,331.268 44.584,328.990 44.584,326.518 C44.584,324.473 43.642,322.600 42.065,321.403 L42.065,326.518 C42.065,326.894 41.764,327.199 41.391,327.199 L35.102,327.199 C34.730,327.199 34.429,326.894 34.429,326.518 L34.428,321.404 C32.852,322.601 31.910,324.474 31.910,326.518 C31.909,328.990 33.341,331.268 35.558,332.319 Z" class="cls-3"/>
  </g>
  <g>
    <path d="M31.269,375.475 L31.269,391.375 L34.808,392.258 L34.808,397.558 L41.886,392.258 L63.119,392.258 L63.119,375.475 L31.269,375.475 Z" class="cls-2"/>
    <path d="M48.079,393.141 L48.079,413.100 C48.079,415.245 46.331,416.991 44.181,416.991 L21.895,416.991 C19.746,416.991 17.998,415.245 17.998,413.099 L17.998,367.882 C17.998,365.738 19.746,363.991 21.895,363.991 L44.182,363.991 C46.331,363.991 48.079,365.738 48.079,367.882 L48.079,374.591 L64.004,374.591 L64.004,393.141 L48.079,393.141 ZM19.768,413.100 C19.768,414.272 20.722,415.225 21.895,415.225 L44.182,415.225 C45.355,415.225 46.309,414.272 46.309,413.100 L46.309,406.391 L19.768,406.391 L19.768,413.100 ZM46.309,367.882 C46.309,366.711 45.355,365.758 44.181,365.758 L21.895,365.758 C20.722,365.758 19.768,366.711 19.768,367.882 L19.768,369.291 L46.309,369.291 L46.309,367.882 ZM46.309,371.058 L19.768,371.058 L19.768,404.625 L46.309,404.625 L46.309,393.141 L42.180,393.141 L33.923,399.325 L33.923,393.141 L30.384,393.141 L30.384,374.591 L46.309,374.591 L46.309,371.058 ZM62.235,376.358 L48.079,376.358 L32.154,376.358 L32.154,391.375 L35.693,391.375 L35.693,395.791 L41.591,391.375 L48.079,391.375 L62.235,391.375 L62.235,376.358 ZM35.693,386.075 C35.693,385.586 36.089,385.191 36.578,385.191 L57.811,385.191 C58.299,385.191 58.696,385.586 58.696,386.075 C58.696,386.563 58.299,386.958 57.811,386.958 L36.578,386.958 C36.089,386.958 35.693,386.563 35.693,386.075 ZM45.425,382.541 L36.578,382.541 C36.089,382.541 35.693,382.147 35.693,381.658 C35.693,381.170 36.089,380.775 36.578,380.775 L45.425,380.775 C45.913,380.775 46.309,381.170 46.309,381.658 C46.309,382.147 45.913,382.541 45.425,382.541 ZM29.500,366.641 L33.039,366.641 C33.527,366.641 33.923,367.036 33.923,367.525 C33.923,368.013 33.527,368.408 33.039,368.408 L29.500,368.408 C29.011,368.408 28.615,368.013 28.615,367.525 C28.615,367.036 29.011,366.641 29.500,366.641 ZM35.693,366.641 L36.578,366.641 C37.066,366.641 37.462,367.036 37.462,367.525 C37.462,368.013 37.066,368.408 36.578,368.408 L35.693,368.408 C35.204,368.408 34.808,368.013 34.808,367.525 C34.808,367.036 35.204,366.641 35.693,366.641 ZM32.154,414.341 C30.202,414.341 28.615,412.757 28.615,410.808 C28.615,408.859 30.202,407.275 32.154,407.275 C34.106,407.275 35.693,408.859 35.693,410.808 C35.693,412.757 34.106,414.341 32.154,414.341 ZM32.154,409.041 C31.178,409.041 30.384,409.834 30.384,410.808 C30.384,411.782 31.178,412.575 32.154,412.575 C33.130,412.575 33.923,411.782 33.923,410.808 C33.923,409.834 33.130,409.041 32.154,409.041 Z" class="cls-3"/>
  </g>
  <g>
    <circle cx="25.063" cy="568.063" r="14.938" class="cls-4"/>
    <path d="M35.435,561.917 L33.897,560.406 C33.483,559.999 32.932,559.775 32.346,559.775 C31.760,559.775 31.210,559.999 30.795,560.406 L22.727,568.331 L20.496,566.140 C20.082,565.734 19.531,565.510 18.946,565.510 C18.360,565.510 17.809,565.734 17.395,566.141 L15.856,567.652 C15.001,568.492 15.001,569.859 15.856,570.699 L21.176,575.924 C21.590,576.331 22.141,576.555 22.727,576.555 L22.727,576.555 C23.313,576.555 23.864,576.331 24.278,575.924 L35.435,564.964 C36.290,564.124 36.290,562.757 35.435,561.917 Z" class="cls-3"/>
    <path d="M62.631,591.165 L54.006,599.637 C53.770,599.870 53.449,600.000 53.115,600.000 L24.927,600.000 C22.953,600.000 21.347,598.422 21.347,596.483 L21.347,582.944 C14.803,581.104 10.000,575.175 10.000,568.165 C10.000,561.154 14.803,555.225 21.347,553.386 L21.347,545.517 C21.347,543.578 22.953,542.000 24.927,542.000 L59.420,542.000 C61.394,542.000 63.000,543.578 63.000,545.517 L63.000,590.289 C63.000,590.618 62.867,590.933 62.631,591.165 ZM54.376,595.771 L58.695,591.528 L55.434,591.528 C54.850,591.528 54.376,591.994 54.376,592.567 L54.376,595.771 ZM12.522,568.165 C12.522,575.273 18.409,581.057 25.646,581.057 C32.882,581.057 38.770,575.273 38.770,568.165 C38.770,561.056 32.882,555.273 25.646,555.273 C18.409,555.273 12.522,561.056 12.522,568.165 ZM59.420,544.477 L24.927,544.477 C24.343,544.477 23.868,544.943 23.868,545.517 L23.868,551.732 L23.868,552.896 C24.452,552.830 25.045,552.796 25.646,552.796 C30.436,552.796 34.729,554.922 37.601,558.263 L51.163,558.263 C51.860,558.263 52.424,558.817 52.424,559.501 C52.424,560.185 51.860,560.740 51.163,560.740 L39.341,560.740 C40.405,562.627 41.078,564.756 41.248,567.020 L51.163,567.020 C51.860,567.020 52.424,567.575 52.424,568.259 C52.424,568.943 51.860,569.497 51.163,569.497 L41.232,569.497 C41.033,571.767 40.330,573.896 39.234,575.778 L51.163,575.778 C51.860,575.778 52.424,576.332 52.424,577.016 C52.424,577.700 51.860,578.255 51.163,578.255 L37.438,578.255 C34.567,581.487 30.345,583.534 25.646,583.534 C25.045,583.534 24.452,583.499 23.868,583.434 L23.868,596.483 C23.868,597.056 24.343,597.523 24.927,597.523 L51.853,597.523 L51.853,592.567 C51.853,590.628 53.459,589.051 55.433,589.051 L60.478,589.051 L60.478,545.517 C60.478,544.943 60.004,544.477 59.420,544.477 ZM54.305,587.012 L42.509,587.012 C41.813,587.012 41.249,586.458 41.249,585.774 C41.249,585.090 41.813,584.535 42.509,584.535 L54.305,584.535 C55.001,584.535 55.566,585.090 55.566,585.774 C55.566,586.458 55.001,587.012 54.305,587.012 ZM32.346,559.775 C32.932,559.775 33.483,559.999 33.897,560.406 L35.435,561.917 C36.290,562.757 36.290,564.124 35.435,564.964 L24.278,575.924 C23.864,576.331 23.313,576.555 22.727,576.555 L22.727,576.555 C22.141,576.555 21.590,576.331 21.176,575.924 L15.856,570.699 C15.001,569.859 15.001,568.492 15.856,567.652 L17.395,566.141 C17.809,565.734 18.360,565.510 18.946,565.510 C19.531,565.510 20.082,565.734 20.496,566.140 L22.727,568.331 L30.795,560.406 C31.210,559.999 31.760,559.775 32.346,559.775 ZM21.835,570.959 L18.946,568.120 L17.872,569.175 L22.727,573.944 L33.420,563.440 L32.346,562.385 L23.618,570.959 C23.126,571.442 22.327,571.442 21.835,570.959 Z" class="cls-3"/>
  </g>
  <g>
    <circle cx="25.5" cy="628.5" r="14.5" class="cls-4"/>
    <path d="M62.631,651.165 L54.006,659.637 C53.770,659.870 53.449,660.000 53.115,660.000 L24.927,660.000 C22.953,660.000 21.347,658.422 21.347,656.483 L21.347,642.944 C14.803,641.104 10.000,635.175 10.000,628.165 C10.000,621.154 14.803,615.226 21.347,613.386 L21.347,605.517 C21.347,603.578 22.953,602.000 24.927,602.000 L59.420,602.000 C61.394,602.000 63.000,603.578 63.000,605.517 L63.000,650.289 C63.000,650.618 62.867,650.933 62.631,651.165 ZM54.376,655.771 L58.695,651.528 L55.434,651.528 C54.850,651.528 54.376,651.994 54.376,652.567 L54.376,655.771 ZM12.522,628.165 C12.522,635.273 18.409,641.057 25.646,641.057 C32.882,641.057 38.770,635.273 38.770,628.165 C38.770,621.056 32.882,615.273 25.646,615.273 C18.409,615.273 12.522,621.056 12.522,628.165 ZM59.420,604.477 L24.927,604.477 C24.343,604.477 23.868,604.943 23.868,605.517 L23.868,611.732 L23.868,612.896 C24.452,612.830 25.045,612.796 25.646,612.796 C30.436,612.796 34.729,614.922 37.601,618.263 L51.163,618.263 C51.860,618.263 52.424,618.817 52.424,619.501 C52.424,620.185 51.860,620.740 51.163,620.740 L39.341,620.740 C40.405,622.627 41.078,624.756 41.248,627.020 L51.163,627.020 C51.860,627.020 52.424,627.575 52.424,628.259 C52.424,628.943 51.860,629.497 51.163,629.497 L41.232,629.497 C41.033,631.766 40.330,633.896 39.234,635.778 L51.163,635.778 C51.860,635.778 52.424,636.332 52.424,637.016 C52.424,637.700 51.860,638.255 51.163,638.255 L37.438,638.255 C34.567,641.488 30.345,643.534 25.646,643.534 C25.045,643.534 24.452,643.499 23.868,643.434 L23.868,656.483 C23.868,657.056 24.343,657.523 24.927,657.523 L51.853,657.523 L51.853,652.567 C51.853,650.628 53.459,649.051 55.433,649.051 L60.478,649.051 L60.478,605.517 C60.478,604.943 60.004,604.477 59.420,604.477 ZM54.305,647.012 L42.509,647.012 C41.813,647.012 41.249,646.458 41.249,645.774 C41.249,645.090 41.813,644.535 42.509,644.535 L54.305,644.535 C55.001,644.535 55.566,645.090 55.566,645.774 C55.566,646.458 55.001,647.012 54.305,647.012 Z" class="cls-3"/>
    <path d="M29.492,627.781 L32.913,631.105 C33.558,631.732 33.558,632.749 32.913,633.376 L31.745,634.511 C31.099,635.139 30.053,635.139 29.408,634.511 L25.987,631.187 L22.566,634.511 C21.921,635.139 20.875,635.139 20.229,634.511 L19.061,633.376 C18.416,632.749 18.416,631.732 19.061,631.105 L22.482,627.781 L19.477,624.860 C18.832,624.233 18.832,623.217 19.477,622.589 L20.645,621.454 C21.291,620.827 22.337,620.827 22.982,621.454 L25.987,624.374 L28.992,621.454 C29.637,620.827 30.684,620.827 31.329,621.454 L32.497,622.589 C33.143,623.217 33.143,624.233 32.497,624.860 L29.492,627.781 Z" class="cls-3"/>
  </g>
  <g>
    <path d="M39.000,718.000 C38.833,718.000 38.665,717.973 38.504,717.920 C33.077,716.138 28.457,712.719 24.772,707.758 C21.870,703.853 19.547,698.992 17.867,693.311 C15.033,683.730 15.000,675.194 15.000,674.835 C15.000,673.975 15.637,673.256 16.471,673.174 C16.597,673.161 29.237,671.831 38.044,665.272 C38.614,664.847 39.386,664.848 39.957,665.272 C48.761,671.831 61.403,673.161 61.529,673.174 C62.363,673.257 63.000,673.976 63.000,674.835 C63.000,675.194 62.967,683.730 60.133,693.312 C58.453,698.993 56.130,703.853 53.228,707.759 C49.543,712.719 44.923,716.138 39.497,717.921 C39.335,717.973 39.168,718.000 39.000,718.000 ZM18.302,676.299 C18.437,679.100 18.963,685.551 21.004,692.419 C24.488,704.139 30.541,711.589 39.000,714.573 C47.478,711.583 53.539,704.107 57.018,692.343 C59.046,685.488 59.566,679.086 59.699,676.299 C56.053,675.754 46.608,673.907 39.000,668.658 C31.391,673.907 21.948,675.754 18.302,676.299 Z" class="cls-3"/>
    <path d="M43.515,690.253 L47.435,694.286 C48.174,695.046 48.174,696.279 47.435,697.040 L46.096,698.417 C45.357,699.178 44.158,699.178 43.418,698.417 L39.498,694.385 L35.578,698.417 C34.839,699.178 33.640,699.178 32.901,698.417 L31.562,697.040 C30.823,696.279 30.823,695.046 31.562,694.286 L35.482,690.253 L32.038,686.711 C31.299,685.950 31.299,684.717 32.038,683.956 L33.377,682.579 C34.117,681.818 35.316,681.818 36.055,682.579 L39.498,686.121 L42.942,682.579 C43.681,681.818 44.880,681.818 45.620,682.579 L46.958,683.956 C47.698,684.717 47.698,685.950 46.958,686.711 L43.515,690.253 Z" class="cls-5"/>
  </g>
  <g>
    <path d="M46.290,773.750 L26.710,773.750 C26.260,773.750 25.895,773.386 25.895,772.937 L25.895,768.125 C25.895,766.975 26.247,765.867 26.912,764.921 L30.749,759.471 C30.901,759.254 31.151,759.125 31.416,759.125 L41.583,759.125 C41.849,759.125 42.099,759.254 42.251,759.471 L46.088,764.921 C46.753,765.867 47.105,766.975 47.105,768.125 L47.105,772.937 C47.105,773.386 46.740,773.750 46.290,773.750 ZM37.190,749.942 C37.041,750.177 36.781,750.321 36.500,750.321 C36.219,750.321 35.959,750.177 35.810,749.942 C35.629,749.671 32.292,744.884 30.080,741.713 C29.907,741.465 29.887,741.142 30.027,740.873 C30.168,740.605 30.446,740.437 30.750,740.437 L42.250,740.437 C42.553,740.437 42.832,740.606 42.973,740.874 C43.113,741.142 43.093,741.465 42.920,741.714 C40.708,744.884 37.371,749.671 37.190,749.942 Z" class="cls-2"/>
    <path d="M51.184,726.625 L50.368,726.625 L50.368,733.937 C50.368,735.771 49.813,737.536 48.761,739.041 L40.341,751.096 L48.760,763.055 C49.812,764.550 50.368,766.304 50.368,768.125 L50.368,775.375 L51.184,775.375 C51.635,775.375 52.000,775.739 52.000,776.187 C52.000,776.636 51.635,777.000 51.184,777.000 L21.816,777.000 C21.365,777.000 21.000,776.636 21.000,776.187 C21.000,775.739 21.365,775.375 21.816,775.375 L22.631,775.375 L22.631,768.125 C22.631,766.304 23.188,764.550 24.240,763.055 L32.659,751.096 L24.239,739.041 C23.187,737.536 22.631,735.771 22.631,733.937 L22.631,726.625 L21.816,726.625 C21.365,726.625 21.000,726.261 21.000,725.812 C21.000,725.364 21.365,725.000 21.816,725.000 L51.184,725.000 C51.635,725.000 52.000,725.364 52.000,725.812 C52.000,726.261 51.635,726.625 51.184,726.625 ZM48.737,726.625 L24.263,726.625 L24.263,733.937 C24.263,735.438 24.718,736.882 25.578,738.113 L34.323,750.634 C34.519,750.914 34.518,751.285 34.322,751.564 L25.576,763.988 C24.717,765.208 24.263,766.639 24.263,768.125 L24.263,775.375 L48.737,775.375 L48.737,768.125 C48.737,766.639 48.283,765.208 47.424,763.988 L38.678,751.564 C38.482,751.285 38.481,750.914 38.677,750.634 L47.422,738.113 C48.282,736.882 48.737,735.438 48.737,733.937 L48.737,726.625 ZM37.190,749.942 C37.041,750.177 36.781,750.321 36.500,750.321 C36.219,750.321 35.959,750.177 35.810,749.942 C35.629,749.671 32.292,744.884 30.080,741.713 C29.907,741.465 29.887,741.142 30.027,740.873 C30.168,740.605 30.446,740.437 30.750,740.437 L42.250,740.437 C42.553,740.437 42.832,740.606 42.973,740.874 C43.113,741.142 43.093,741.465 42.920,741.714 C40.708,744.884 37.371,749.671 37.190,749.942 ZM32.310,742.062 C34.645,745.410 35.863,747.159 36.500,748.076 C37.137,747.159 38.355,745.410 40.690,742.062 L32.310,742.062 ZM42.251,759.471 L46.088,764.921 C46.753,765.867 47.105,766.975 47.105,768.125 L47.105,772.937 C47.105,773.386 46.740,773.750 46.290,773.750 L44.658,773.750 C44.208,773.750 36.951,773.750 36.500,773.750 L26.710,773.750 C26.260,773.750 25.895,773.386 25.895,772.937 L25.895,768.125 C25.895,766.975 26.247,765.867 26.912,764.921 L30.749,759.471 C30.901,759.254 31.151,759.125 31.416,759.125 L41.583,759.125 C41.849,759.125 42.099,759.254 42.251,759.471 ZM31.841,760.750 L28.248,765.854 C27.776,766.525 27.526,767.310 27.526,768.125 L27.526,772.125 L36.500,772.125 C36.951,772.125 44.208,772.125 44.658,772.125 L45.474,772.125 L45.474,768.125 C45.474,767.310 45.224,766.525 44.752,765.854 L41.159,760.750 L31.841,760.750 Z" class="cls-3"/>
  </g>
</svg>
